…
</center>

Mapping defines how the variables are applied to the plot. So if we were graphing information from ```mpg```, we might map a car’s engine displacement to the
position and highway mileage to the "y" position.
```R
mpg %>%
  select(displ, hwy) %>%
  rename(x = displ,
         y = hwy)
```
```R
## # A tibble: 234 x 2
##        x     y
##    <dbl> <int>
##  1   1.8    29
##  2   1.8    29
##  3   2      31
##  4   2      30
##  5   2.8    26
##  6   2.8    26
##  7   3.1    27
##  8   1.8    26
##  9   1.8    25
## 10   2      28
## # … with 224 more rows
```


**Statistical transformation** <a name="id1.3"></a>

A statistical transformation (stat) transforms the data, generally by summarizing the information. For instance, in a bar graph you typically are not trying to graph the raw data because this doesn’t make any inherent sense. Instead, you might summarize the data by graphing the total number of observations within a set of categories. Or if you have a dataset with many observations, you might transform the data into a smoothing line which summarizes the overall pattern of the relationship between variables by calculating the mean of y conditional on x.


A stat is a function that takes in a dataset as the input and returns a dataset as the output; a stat can add new variables to the original dataset, or create an entirely new dataset. So instead of graphing this data in its raw form:

```R
mpg %>%
  select(cyl)
```
```R
## # A tibble: 234 x 1
##      cyl
##    <int>
##  1     4
##  2     4
##  3     4
##  4     4
##  5     6
##  6     6
##  7     6
##  8     4
##  9     4
## 10     4
## # … with 224 more rows
```
…
